Name,Place,Division,Sex,Equipment,State,WeightClassKg,BodyweightKg,Age,Best3SquatKg,Squat4Kg,Best3BenchKg,Bench4Kg,Best3DeadliftKg,Deadlift4Kg,TotalKg,Event
Tiffany Leung,1,Junior Women 20-23,F,Raw,CA,44,42.09,23,95.00,,42.50,,130.00,,267.50,SBD
Marion Franz,1,Junior Women 20-23,F,Raw,CA,56,54.70,22,92.50,,68.00,,120.00,,280.50,SBD
Saira Mejia,2,Junior Women 20-23,F,Raw,CA,56,54.84,23,105.00,,45.00,,110.00,,260.00,SBD
Cynthia Leu,1,Junior Women 20-23,F,Raw,CA,60,59.83,21,122.50,125,57.50,,145.00,,325.00,SBD
Danielle Alvarez,2,Junior Women 20-23,F,Raw,CA,60,58.24,23,105.00,,52.50,,122.50,,280.00,SBD
Roxanne Crawford,3,Junior Women 20-23,F,Raw,CA,60,58.42,23,70.00,,40.00,,105.00,,215.00,SBD
Casey Dunn,1,Junior Women 20-23,F,Raw,CA,75,72.89,23,115.00,,47.50,,125.00,,287.50,SBD
Cali Nguyen,1,Open Women,F,Raw,CA,56,55.79,24,117.50,,42.50,,137.50,,297.50,SBD
Marion Franz,2,Open Women,F,Raw,CA,56,54.70,22,92.50,,68.00,,120.00,,280.50,SBD
Saira Mejia,3,Open Women,F,Raw,CA,56,54.84,23,105.00,,45.00,,110.00,,260.00,SBD
Michele Hernandez,4,Open Women,F,Raw,CA,56,52.30,31,70.00,,45.00,,117.50,,232.50,SBD
Niki Chacon,5,Open Women,F,Raw,CA,56,54.79,29,47.50,,45.00,,97.50,,190.00,SBD
Pamela Lopes,DQ,Open Women,F,Raw,CA,56,55.79,57,87.50,,-55.00,,127.50,,,SBD
Cynthia Leu,1,Open Women,F,Raw,CA,60,59.83,21,122.50,125,57.50,,145.00,,325.00,SBD
Danielle Alvarez,2,Open Women,F,Raw,CA,60,58.24,23,105.00,,52.50,,122.50,,280.00,SBD
Janae Lawson,3,Open Women,F,Raw,CA,60,59.69,28,80.00,,60.00,,107.50,,247.50,SBD
Roxanne Crawford,4,Open Women,F,Raw,CA,60,58.42,23,70.00,,40.00,,105.00,,215.00,SBD
Kristi Cloud,5,Open Women,F,Raw,CA,60,57.88,46,47.50,,25.00,,92.50,,165.00,SBD
Josephine Lau,DQ,Open Women,F,Raw,CA,60,59.78,24,-115.00,,52.50,,125.00,,,SBD
Vanessa Nomura,1,Open Women,F,Raw,AZ,67.5,60.55,26,120.00,,57.50,,142.50,,320.00,SBD
Tina Truong,2,Open Women,F,Raw,CA,67.5,62.05,26,117.50,,52.50,,140.00,,310.00,SBD
Caressa Quayle,3,Open Women,F,Raw,CA,67.5,66.13,24,115.00,,47.50,,142.50,,305.00,SBD
May Rodgers,4,Open Women,F,Raw,CA,67.5,66.68,51,75.00,,35.00,,110.00,,220.00,SBD
Kristina Dobyns,1,Open Women,F,Raw,CA,75,72.35,31,145.50,147.5,106.50,,157.50,107.5,409.50,SBD
Talina Barajas,2,Open Women,F,Raw,CA,75,74.30,27,110.00,,62.50,,137.50,,310.00,SBD
Casey Dunn,3,Open Women,F,Raw,CA,75,72.89,23,115.00,,47.50,,125.00,,287.50,SBD
Virginia Deatherage,4,Open Women,F,Raw,CA,75,73.26,27,75.00,,62.50,,112.50,,250.00,SBD
Leigh Ann Lively,1,Open Women,F,Raw,CA,90,86.36,46,92.50,,42.50,,120.00,,255.00,SBD
Monique LeMay,1,Master Women 40-44,F,Raw,CA,52,51.39,43,90.00,,57.50,,110.00,111,257.50,SBD
Pamela Lopes,DQ,Master Women 55-59,F,Raw,CA,56,55.79,57,87.50,,-55.00,,127.50,,,SBD
Kristi Cloud,1,Master Women 45-49,F,Raw,CA,60,57.88,46,47.50,,25.00,,92.50,,165.00,SBD
May Rodgers,1,Master Women 50-54,F,Raw,CA,67.5,66.68,51,75.00,,35.00,,110.00,,220.00,SBD
Leigh Ann Lively,1,Master Women 45-49,F,Raw,CA,90,86.36,46,92.50,,42.50,,120.00,,255.00,SBD
Brian Nguyen,1,Junior Men 20-23,M,Raw,CA,56,53.52,21,150.00,,110.00,,202.50,,462.50,SBD
Minardo Ordonez,2,Junior Men 20-23,M,Raw,CA,56,55.66,21,117.50,,87.50,,167.50,,372.50,SBD
Anthony Garcia,1,Junior Men 16-17,M,Raw,CA,67.5,63.28,17,155.00,,90.00,,197.50,,442.50,SBD
Gerald Lebrilla,1,Junior Men 20-23,M,Raw,CA,67.5,67.27,21,177.50,,115.00,,232.50,,525.00,SBD
Atilio Avalos,2,Junior Men 20-23,M,Raw,CA,67.5,60.74,23,152.50,,105.00,,175.00,,432.50,SBD
Seth Rainha,1,Junior Men 18-19,M,Raw,CA,75,73.48,18,197.50,,110.00,,215.00,,522.50,SBD
Zachary Yamamoto,2,Junior Men 18-19,M,Raw,CA,75,74.48,18,182.50,,135.00,,200.00,,517.50,SBD
Jonathan Diaz,1,Junior Men 20-23,M,Raw,CA,75,73.98,23,155.00,,97.50,,187.50,,440.00,SBD
Eduardo Cervantes,1,Junior Men 20-23,M,Raw,CA,90,87.77,20,180.00,,115.00,,210.00,,505.00,SBD
Seong Kim,2,Junior Men 20-23,M,Raw,CA,90,82.78,20,125.00,,80.00,,152.50,,357.50,SBD
Kyle Alexander,1,Junior Men 18-19,M,Raw,CA,100,96.66,18,228.00,,132.50,,257.50,,618.00,SBD
Jackson Robison,1,Junior Men 16-17,M,Raw,CA,110,106.50,17,172.50,,92.50,,215.00,,480.00,SBD
Steven Maradona,1,Junior Men 20-23,M,Raw,CA,140+,162.61,20,340.00,,227.50,,272.50,,840.00,SBD
Brian Nguyen,1,Open Men,M,Raw,CA,56,53.52,21,150.00,,110.00,,202.50,,462.50,SBD
Minardo Ordonez,2,Open Men,M,Raw,CA,56,55.66,21,117.50,,87.50,,167.50,,372.50,SBD
Raymond Escobar,1,Open Men,M,Raw,CA,60,59.69,25,125.00,,85.00,,197.50,,407.50,SBD
Gerald Lebrilla,1,Open Men,M,Raw,CA,67.5,67.27,21,177.50,,115.00,,232.50,,525.00,SBD
Jan Landrito,2,Open Men,M,Raw,CA,67.5,66.09,28,175.00,,102.50,,215.00,,492.50,SBD
Anthony Garcia,3,Open Men,M,Raw,CA,67.5,63.28,17,155.00,,90.00,,197.50,,442.50,SBD
Atilio Avalos,4,Open Men,M,Raw,CA,67.5,60.74,23,152.50,,105.00,,175.00,,432.50,SBD
Edward Payuyao,1,Open Men,M,Raw,CA,75,73.12,26,185.00,,120.00,,250.00,,555.00,SBD
Seth Rainha,2,Open Men,M,Raw,CA,75,73.48,18,197.50,,110.00,,215.00,,522.50,SBD
Zachary Yamamoto,3,Open Men,M,Raw,CA,75,74.48,18,182.50,,135.00,,200.00,,517.50,SBD
Lance LaPlant,4,Open Men,M,Raw,CA,75,74.21,24,177.50,,130.00,,195.00,,502.50,SBD
Brandon Tay,5,Open Men,M,Raw,CA,75,70.99,25,182.50,,110.00,,180.00,,472.50,SBD
Mark Reyes,6,Open Men,M,Raw,CA,75,74.03,29,152.50,,107.50,,202.50,,462.50,SBD
JonCasey Ibanez,7,Open Men,M,Raw,CA,75,73.53,25,147.50,,105.00,,202.50,,455.00,SBD
Jonathan Diaz,8,Open Men,M,Raw,CA,75,73.98,23,155.00,,97.50,,187.50,,440.00,SBD
Jeff Justo,1,Open Men,M,Raw,CA,82.5,81.78,27,260.00,,137.50,,245.00,,642.50,SBD
Eric Lang,2,Open Men,M,Raw,CA,82.5,76.48,24,182.50,,112.50,,250.00,,545.00,SBD
Nick Morgan,3,Open Men,M,Raw,CA,82.5,79.47,29,142.50,,107.50,,182.50,,432.50,SBD
Marty Gothard,4,Open Men,M,Raw,CA,82.5,79.42,65,110.00,,70.00,,152.50,,332.50,SBD
Robbie Sardinia,1,Open Men,M,Raw,CA,90,89.22,30,237.50,,172.50,,287.50,,697.50,SBD
Mike Galindo,2,Open Men,M,Raw,CA,90,87.86,28,182.50,,167.50,,262.50,,612.50,SBD
Ryan Saplan,3,Open Men,M,Raw,CA,90,87.72,32,165.00,,137.50,,250.00,,552.50,SBD
Quan Cao,4,Open Men,M,Raw,CA,90,89.68,25,195.00,,152.50,,205.00,,552.50,SBD
Kellen Chase,5,Open Men,M,Raw,CA,90,88.50,30,165.00,,147.50,,232.50,,545.00,SBD
David Muñoz,6,Open Men,M,Raw,CA,90,89.58,28,175.00,,135.00,,217.50,,527.50,SBD
Alexander Campbell,7,Open Men,M,Raw,CA,90,89.90,32,160.00,,155.00,,210.00,,525.00,SBD
Daniel Jahangard,8,Open Men,M,Raw,CA,90,87.18,26,182.50,,110.00,,225.00,,517.50,SBD
Russell Bartholomew,9,Open Men,M,Raw,CA,90,87.72,26,172.50,,125.00,,207.50,,505.00,SBD
Eduardo Cervantes,10,Open Men,M,Raw,CA,90,87.77,20,180.00,,115.00,,210.00,,505.00,SBD
Chase Picard,11,Open Men,M,Raw,CA,90,87.86,24,145.00,,127.50,,227.50,,500.00,SBD
Tim Anderson,12,Open Men,M,Raw,CA,90,89.31,60,160.00,,127.50,,210.00,,497.50,SBD
Ray Jiminez,13,Open Men,M,Raw,CA,90,86.59,45,170.00,,132.50,,172.50,,475.00,SBD
Brian Harlin,14,Open Men,M,Raw,NV,90,89.95,40,160.00,,107.50,,207.50,,475.00,SBD
Matthew Rossignol,15,Open Men,M,Raw,CA,90,86.55,27,160.00,,97.50,,215.00,,472.50,SBD
Pete Collodi,16,Open Men,M,Raw,CA,90,89.22,49,145.00,,107.50,,167.50,,420.00,SBD
Seong Kim,17,Open Men,M,Raw,CA,90,82.78,20,125.00,,80.00,,152.50,,357.50,SBD
Mike Tiktinsky,18,Open Men,M,Raw,CA,90,83.60,67,97.50,,87.50,,127.50,,312.50,SBD
Nick Varela,DQ,Open Men,M,Raw,CA,90,89.36,33,185.00,,-140.00,,227.50,,,SBD
Scott Berta,1,Open Men,M,Raw,CA,100,99.38,26,222.50,,160.00,,265.00,,647.50,SBD
Kyle Alexander,2,Open Men,M,Raw,CA,100,96.66,18,228.00,,132.50,,257.50,,618.00,SBD
Fernando Avila,3,Open Men,M,Raw,CA,100,98.61,26,192.50,,112.50,,240.00,,545.00,SBD
Eric Guzman,4,Open Men,M,Raw,CA,100,97.39,31,142.50,,97.50,,175.00,,415.00,SBD
Michael Placeres,5,Open Men,M,Raw,CA,100,90.49,55,142.50,,85.00,,180.00,,407.50,SBD
Wade Zeno,DQ,Open Men,M,Raw,CA,100,97.16,26,225.00,,-157.50,,260.00,,,SBD
Vincent Din,1,Open Men,M,Raw,CA,110,109.13,26,280.00,,215.00,,317.50,,812.50,SBD
Tony Montgomery,2,Open Men,M,Raw,CA,110,108.59,28,282.50,,215.00,,300.00,,797.50,SBD
Brandon McKenzie,3,Open Men,M,Raw,CA,110,107.14,29,272.50,,185.00,,287.50,,745.00,SBD
Joey Tango,4,Open Men,M,Raw,CA,110,109.27,28,272.50,,157.50,,290.00,,720.00,SBD
Jackson Robison,5,Open Men,M,Raw,CA,110,106.50,17,172.50,,92.50,,215.00,,480.00,SBD
Nicholas Chapa,1,Open Men,M,Raw,CA,125,121.52,25,242.50,,140.00,,257.50,,640.00,SBD
Dani Pham,2,Open Men,M,Raw,CA,125,123.06,31,217.50,,122.50,,237.50,,577.50,SBD
Steven Maradona,1,Open Men,M,Raw,CA,140+,162.61,20,340.00,,227.50,,272.50,,840.00,SBD
Michael Carter,2,Open Men,M,Raw,CA,140+,169.19,33,320.00,,195.00,,312.50,,827.50,SBD
Marty Gothard,1,Master Men 65-69,M,Raw,CA,82.5,79.42,65,110.00,,70.00,,152.50,,332.50,SBD
Brian Harlin,1,Master Men 40-44,M,Raw,NV,90,89.95,40,160.00,,107.50,,207.50,,475.00,SBD
Ray Jiminez,1,Master Men 45-49,M,Raw,CA,90,86.59,45,170.00,,132.50,,172.50,,475.00,SBD
Pete Collodi,2,Master Men 45-49,M,Raw,CA,90,89.22,49,145.00,,107.50,,167.50,,420.00,SBD
Tim Anderson,1,Master Men 60-64,M,Raw,CA,90,89.31,60,160.00,,127.50,,210.00,,497.50,SBD
Mike Tiktinsky,1,Master Men 65-69,M,Raw,CA,90,83.60,67,97.50,,87.50,,127.50,,312.50,SBD
Michael Placeres,1,Master Men 55-59,M,Raw,CA,100,90.49,55,142.50,,85.00,,180.00,,407.50,SBD
Kim Maslana,1,Master Women 50-54,F,Raw,CA,60,57.29,52,80.00,,47.50,,95.00,,222.50,SBD
Janine Jadallah,1,Master Women 45-49,F,Raw,CA,75,69.72,48,120.00,122.5,75.00,,147.50,152.5,342.50,SBD
Chris Duarte,1,Junior Men 16-17,M,Raw,CA,82.5,80.15,17,162.50,,115.00,,182.50,,460.00,SBD
Nicholas Pigulski,1,Junior Men 20-23,M,Raw,CA,82.5,81.33,21,185.00,,150.00,,215.00,,550.00,SBD
Austin Clements,1,Junior Men 20-23,M,Raw,CA,110,103.96,21,207.50,,145.00,,247.50,,600.00,SBD
Joshua Battersby,1,Junior Men 18-19,M,Raw,CA,140+,147.55,19,300.00,,175.00,,280.00,,755.00,SBD
Tony Lopez,1,Open Men,M,Raw,CA,82.5,82.37,35,220.00,,157.50,,262.50,,640.00,SBD
Tony Mai,2,Open Men,M,Raw,CA,82.5,81.24,27,240.00,,125.00,,250.00,,615.00,SBD
Nicholas Pigulski,3,Open Men,M,Raw,CA,82.5,81.33,21,185.00,,150.00,,215.00,,550.00,SBD
Boots Fresnoza,4,Open Men,M,Raw,CA,82.5,80.24,35,157.50,,115.00,,210.00,,482.50,SBD
Chris Duarte,5,Open Men,M,Raw,CA,82.5,80.15,17,162.50,,115.00,,182.50,,460.00,SBD
Tony Rodgers,1,Open Men,M,Raw,CA,90,87.59,25,227.50,,157.50,,205.00,,590.00,SBD
Daniel Melgoza,2,Open Men,M,Raw,CA,90,84.14,38,192.50,,150.00,,197.50,,540.00,SBD
Antonio Jimenez,3,Open Men,M,Raw,CA,90,85.46,40,205.00,,140.00,,192.50,,537.50,SBD
Manuel Canizales,4,Open Men,M,Raw,CA,90,89.90,26,165.00,,125.00,,205.00,,495.00,SBD
Brandon Harfert,1,Open Men,M,Raw,CA,100,99.88,27,190.00,,137.50,,205.00,,532.50,SBD
Jamie Berlanga,2,Open Men,M,Raw,CA,100,93.76,26,165.00,,112.50,,220.00,,497.50,SBD
Daniel Kilmer,3,Open Men,M,Raw,CA,100,98.52,37,170.00,,110.00,,187.50,,467.50,SBD
Diego Barbosa,1,Open Men,M,Raw,CA,110,109.50,28,247.50,,182.50,,265.00,,695.00,SBD
Jeff Armstrong,2,Open Men,M,Raw,CA,110,108.23,41,237.50,,130.00,,242.50,,610.00,SBD
Austin Clements,3,Open Men,M,Raw,CA,110,103.96,21,207.50,,145.00,,247.50,,600.00,SBD
Tony Lopez,1,Submaster Men 35-39,M,Raw,CA,82.5,82.37,35,220.00,,157.50,,262.50,,640.00,SBD
Boots Fresnoza,2,Submaster Men 35-39,M,Raw,CA,82.5,80.24,35,157.50,,115.00,,210.00,,482.50,SBD
Daniel Melgoza,1,Submaster Men 35-39,M,Raw,CA,90,84.14,38,192.50,,150.00,,197.50,,540.00,SBD
Daniel Kilmer,1,Submaster Men 35-39,M,Raw,CA,100,98.52,37,170.00,,110.00,,187.50,,467.50,SBD
Antonio Jimenez,1,Master Men 40-44,M,Raw,CA,90,85.46,40,205.00,210,140.00,,192.50,,537.50,SBD
Jeff Armstrong,1,Master Men 40-44,M,Raw,CA,110,108.23,41,237.50,,130.00,,242.50,,610.00,SBD
Ted Felipe,1,Open Men,M,Single-ply,CA,82.5,81.56,24,172.50,,132.50,,227.50,,532.50,SBD
Gerald Guevara,2,Open Men,M,Single-ply,CA,82.5,78.65,24,195.00,,122.50,,202.50,,520.00,SBD
Shawn Buckley,1,Open Men,M,Single-ply,CA,90,89.90,31,322.50,,210.00,,265.00,,797.50,SBD
Roy Eriksen,1,Master Men 70-74,M,Single-ply,NV,100,93.12,71,155.00,,110.00,,182.50,,447.50,SBD
Joe Bernazzani,DQ,Master Men 60-64,M,Single-ply,CA,100,99.20,63,195.00,,-182.50,,,,,SBD
Deirdre Rockefeller-Ramsey,1,Open Women,F,Raw,CA,60,59.74,37,,,62.50,,,,62.50,B
Tracy Snyder,2,Open Women,F,Raw,CA,60,59.87,47,,,58.00,,,,58.00,B
Bettina Lutman,1,Open Women,F,Raw,CA,67.5,64.77,38,,,67.50,70,,,67.50,B
Deirdre Rockefeller-Ramsey,1,Submaster Women 35-39,F,Raw,CA,60,59.74,37,,,62.50,,,,62.50,B
Bettina Lutman,1,Submaster Women 35-39,F,Raw,CA,67.5,64.77,38,,,67.50,70,,,67.50,B
Tracy Snyder,1,Master Women 45-49,F,Raw,CA,60,59.87,47,,,58.00,58.5,,,58.00,B
Manuel Pina,1,Junior Men 20-23,M,Raw,CA,75,70.44,21,,,135.00,,,,135.00,B
Brandon Della Maggiora,2,Junior Men 20-23,M,Raw,CA,75,68.45,20,,,117.50,,,,117.50,B
Steven Maradona,1,Junior Men 20-23,M,Raw,CA,140+,162.61,20,,,227.50,,,,227.50,B
Dan Dudgeon,1,Open Men,M,Raw,CA,90,86.82,39,,,188.00,,,,188.00,B
Bob Rudge,2,Open Men,M,Raw,CA,90,86.32,72,,,150.00,,,,150.00,B
Eric Gardner,3,Open Men,M,Raw,CA,90,88.63,40,,,130.00,,,,130.00,B
Jessie Ablang,1,Open Men,M,Raw,CA,140,133.04,34,,,200.00,,,,200.00,B
Dan Dudgeon,1,Submaster Men 35-39,M,Raw,CA,90,86.82,39,,,188.00,,,,188.00,B
Michael V. Russell,1,Master Men 55-59,M,Raw,CA,67.5,62.14,58,,,90.00,,,,90.00,B
Marty Gothard,1,Master Men 65-69,M,Raw,CA,82.5,79.42,65,,,70.00,,,,70.00,B
Eric Gardner,1,Master Men 40-44,M,Raw,CA,90,88.63,40,,,130.00,,,,130.00,B
Bob Rudge,1,Master Men 70-74,M,Raw,CA,90,86.32,72,,,150.00,,,,150.00,B
Stacy Dedrick,1,Master Men 45-49,M,Raw,CA,100,94.76,49,,,190.00,,,,190.00,B
Patrick Monahan,1,Master Men 55-59,M,Raw,CA,125,120.43,55,,,175.00,,,,175.00,B
Dan Dudgeon,1,Submaster Men 35-39,M,Single-ply,CA,90,86.82,39,,,245.00,255.5,,,245.00,B
Stacy Dedrick,1,Master Men 45-49,M,Single-ply,CA,100,94.76,49,,,212.50,,,,212.50,B
Kevin Costa,1,Open Men,M,Multi-ply,CA,90,84.55,25,,,190.00,,,,190.00,B
Natalie Sardinia,1,Open Women,F,Raw,CA,60,59.51,34,,,,,147.50,,147.50,D
Deirdre Rockefeller-Ramsey,2,Open Women,F,Raw,CA,60,59.74,37,,,,,120.00,,120.00,D
Deirdre Rockefeller-Ramsey,1,Submaster Women 35-39,F,Raw,A,60,59.74,37,,,,,120.00,,120.00,D
Martha Eble,1,Master Women 60-64,F,Raw,CA,56,54.75,60,,,,,77.50,,77.50,D
Janine Jadallah,1,Master Women 45-49,F,Raw,CA,75,69.72,48,,,,,147.50,152.5,147.50,D
Anthony Garcia,1,Junior Men 16-17,M,Raw,CA,67.5,63.28,17,,,,,197.50,,197.50,D
Vincent Ramirez,1,Junior Men 20-23,M,Raw,CA,75,71.85,20,,,,,205.00,,205.00,D
Brandon Della Maggiora,2,Junior Men 20-23,M,Raw,CA,75,68.45,20,,,,,145.00,,145.00,D
Vincent Ramirez,1,Open Men,M,Raw,CA,75,71.85,20,,,,,205.00,,205.00,D
Salvatore Morabito,2,Open Men,M,Raw,CA,75,72.94,72,,,,,160.00,,160.00,D
Brandon Della Maggiora,3,Open Men,M,Raw,CA,75,68.45,20,,,,,145.00,,145.00,D
Eric Lang,1,Open Men,M,Raw,CA,82.5,76.48,24,,,,,250.00,,250.00,D
Marty Gothard,2,Open Men,M,Raw,CA,82.5,79.42,65,,,,,152.50,,152.50,D
Wade Zeno,1,Open Men,M,Raw,CA,100,97.16,26,,,,,260.00,,260.00,D
Jessie Ablang,1,Open Men,M,Raw,CA,140,133.04,34,,,,,260.00,,260.00,D
Salvatore Morabito,1,Master Men 70-74,M,Raw,CA,75,72.94,72,,,,,160.00,,160.00,D
Marty Gothard,1,Master Men 65-69,M,Raw,CA,82.5,79.42,65,,,,,152.50,,152.50,D
William Starbuck,1,Master Men 65-69,M,Raw,CA,90,89.63,65,,,,,170.00,182.5,170.00,D
Richard Marks,1,Master Men 70-74,M,Raw,CA,125,124.92,70,,,,,227.50,,227.50,D
Alton Ticer,1,Master Men 65-69,M,Single-ply,CA,82.5,81.51,67,,,,,190.00,,190.00,D
Matt Brand,1,Open Men,M,Multi-ply,CA,110,107.55,34,,,,,318.00,,318.00,D
