Place,BodyweightKg,Name,BirthYear,Team,Best3BenchKg,Division,Sex,WeightClassKg,Equipment,TotalKg,Event
1,51.4,Susse Hougaard,1984,Sportshøjskolen,90,Open,F,52,Single-ply,90,B
1,60,Charlotte K Nielsen,1974,AK Frem,72.5,Open,F,60,Single-ply,72.5,B
2,59.9,Mona Al-Haj,1979,Horsens SK,65,Open,F,60,Single-ply,65,B
1,62.3,Kathrine H Bak,1981,Tårnby SK,72.5,Open,F,67.5,Single-ply,72.5,B
DQ,67.3,Annette Pedersen,1968,SK Atlas,,Open,F,67.5,Single-ply,,B
1,73.5,Norah Josephsen,1978,Odense BBC,97.5,Open,F,75,Single-ply,97.5,B
1,50.4,Mette G Jensen,1985,Ares,62.5,Juniors,F,52,Single-ply,62.5,B
1,67.1,Lise Frederiksen,1982,Roskilde AK,90,Juniors,F,67.5,Single-ply,90,B
1,51.8,Hanna Svahn,1963,AK Frem,90,Masters 1,F,52,Single-ply,90,B
1,67,Kirsten Borggård,1960,Thisted VF,92.5,Masters 1,F,67.5,Single-ply,92.5,B
1,69.3,Lissi Kjeldsen,1962,Thisted VF,70,Masters 1,F,75,Single-ply,70,B
1,59.3,Lise Madsen,1953,Thisted VF,65,Masters 2,F,60,Single-ply,65,B
1,82.5,Susanne Diter,1952,Ares,57.5,Masters 2,F,82.5,Single-ply,57.5,B
1,54.7,Mikkel Sørensen,1977,Aalborg SK,131,Open,M,56,Single-ply,131,B
1,59.1,Morten Strange,1981,AK Frem,90,Open,M,60,Single-ply,90,B
1,63.3,Michael Nielsen,1981,AK Frem,157.5,Open,M,67.5,Single-ply,157.5,B
2,65.6,Morten Rasmussen,1978,Tårnby SK,145,Open,M,67.5,Single-ply,145,B
3,64.8,Anders B Skov,1971,Horsens SK,100,Open,M,67.5,Single-ply,100,B
1,74.6,Michael Guldberg,1977,Frederikshavn HC,180,Open,M,75,Single-ply,180,B
2,74.5,Christian Heidemann,1976,Hjørring SS,162.5,Open,M,75,Single-ply,162.5,B
3,74.8,Marc Møgelbjerg,1975,Grenå SK,160,Open,M,75,Single-ply,160,B
4,74.4,Rene H Vester,1971,SK Atlas,140,Open,M,75,Single-ply,140,B
1,79.5,Frank Brunhøj,1970,AK Frem,175,Open,M,82.5,Single-ply,175,B
2,79.5,Johnni Andersen,1977,AK Frem,155,Open,M,82.5,Single-ply,155,B
3,81.7,Peter Wurenfeldt Christensen,1977,Gudenådalens SK,125,Open,M,82.5,Single-ply,125,B
1,89.9,Kim Salby,1961,AK Odin,200,Open,M,90,Single-ply,200,B
2,89.7,Jan Thøgersen,1966,AK Nordland,185,Open,M,90,Single-ply,185,B
3,89.8,Bo Minkwitz,1972,Roskilde AK,170,Open,M,90,Single-ply,170,B
1,98.9,Thomas J Sørensen,1981,Thisted VF,210,Open,M,100,Single-ply,210,B
2,97.8,Sune Bak,1974,AK Nordland,200,Open,M,100,Single-ply,200,B
3,98.7,Klaus Kørting,1979,Odense BBC,190,Open,M,100,Single-ply,190,B
4,95.7,Christian Boncznyk,1974,Odense BBC,185,Open,M,100,Single-ply,185,B
5,96.2,Johnny Kosela,1972,Aarhus AK,185,Open,M,100,Single-ply,185,B
6,93.6,Bjørn Frederiksen,1979,Roskilde AK,130,Open,M,100,Single-ply,130,B
DQ,91.9,Lars Bo Hansen,1975,Hjørring SS,,Open,M,100,Single-ply,,B
DQ,93.6,Søren Kemp,1976,Roskilde AK,,Open,M,100,Single-ply,,B
DQ,99.3,Henrik W Madsen,1981,Teutonia,,Open,M,100,Single-ply,,B
1,105.1,Lars Mikkelsen,1962,Aalborg SK,240,Open,M,110,Single-ply,240,B
2,102.8,Mads L Knudsen,1973,Horsens SK,172.5,Open,M,110,Single-ply,172.5,B
1,117.6,Tomas Kierstein,1967,AK Nordland,200,Open,M,125,Single-ply,200,B
2,111.2,Bjørn Nielsen,1959,Roskilde AK,175,Open,M,125,Single-ply,175,B
3,111.9,Jørgen Rasmussen,1973,Horsens SK,170,Open,M,125,Single-ply,170,B
1,169.1,Niels Stærkjær,1966,Aarhus AK,295,Open,M,125+,Single-ply,295,B
2,134.7,Jan F Knudsen,1974,AK Frem,252.5,Open,M,125+,Single-ply,252.5,B
3,155.7,Johnny Rix,1974,AK Frem,247.5,Open,M,125+,Single-ply,247.5,B
DQ,131.5,Ralf Jakobsen,1972,SK Atlas,,Open,M,125+,Single-ply,,B
1,56.1,Klavs T Kammersgaard,1984,Ares,87.5,Juniors,M,60,Single-ply,87.5,B
1,73.6,Heino Oesten,1983,Ares,130,Juniors,M,75,Single-ply,130,B
1,81.6,Henrik S Nielsen,1984,AK Frem,160,Juniors,M,82.5,Single-ply,160,B
2,82.1,Kenneth L Hansen,1985,Ares,132.5,Juniors,M,82.5,Single-ply,132.5,B
1,83.9,Alen Babovic,1983,Aalborg SK,192.5,Juniors,M,90,Single-ply,192.5,B
2,89.2,Martin Frantzen,1985,AK Nordland,165,Juniors,M,90,Single-ply,165,B
1,99.8,Nicolas Skaarup,1985,Ares,193,Juniors,M,100,Single-ply,193,B
1,82.3,Erik Rasmussen,1962,AK Frem,175,Masters 1,M,82.5,Single-ply,175,B
2,82.5,Tom Bergan,1962,AK Nordland,170,Masters 1,M,82.5,Single-ply,170,B
DQ,89.2,Karsten Laursen,1956,Hjørring SS,,Masters 1,M,90,Single-ply,,B
1,97,John Lukassen,1961,Grenå SK,195.5,Masters 1,M,100,Single-ply,195.5,B
2,94.1,Mohammed Raja,1958,Aarhus AK,140,Masters 1,M,100,Single-ply,140,B
3,91.5,Peter Petersen,1962,Aarhus AK,125,Masters 1,M,100,Single-ply,125,B
DQ,93.1,Søren Ø Bertelsen,1961,Jyden SM,,Masters 1,M,100,Single-ply,,B
1,109.9,Leif E Nielsen,1964,Aarhus AK,215,Masters 1,M,110,Single-ply,215,B
2,100.2,Bent Krohn,1964,Aarhus AK,170,Masters 1,M,110,Single-ply,170,B
DQ,108.4,Lars Guldberg,1963,AK Nordland,,Masters 1,M,110,Single-ply,,B
1,121.2,Søren Eggebrecht,1959,Aarhus AK,240,Masters 1,M,125,Single-ply,240,B
2,112.2,Klaus M S Andersen,1964,Horsens SK,125,Masters 1,M,125,Single-ply,125,B
1,99.8,Jan Bertelsen,1955,Grenå SK,187.5,Masters 2,M,100,Single-ply,187.5,B
1,109.3,Allan Fuglsang,1950,SK Atlas,187.5,Masters 2,M,110,Single-ply,187.5,B
1,72.1,Svend Møller,1942,Frederikshavn HC,135,Masters 3,M,75,Single-ply,135,B
1,80.3,Hans J Jørgensen,1944,Aalborg SK,140,Masters 3,M,82.5,Single-ply,140,B
2,81,Verner Nielsen,1940,SK Atlas,125,Masters 3,M,82.5,Single-ply,125,B
1,94.3,Allan S Kornval,1944,Albertslund SF,105,Masters 3,M,100,Single-ply,105,B
1,65.7,David Buck,1986,Roskilde AK,110,Teen,M,67.5,Single-ply,110,B
2,66.7,Jonas Bäckstrøm,1986,Odense BBC,95,Teen,M,67.5,Single-ply,95,B
1,73.1,Jens V Larsen,1987,AK Frem,142.5,Teen,M,75,Single-ply,142.5,B
2,70.3,Johannes S Drews,1986,AK Frem,117.5,Teen,M,75,Single-ply,117.5,B
3,70.4,Keld Rishøj,1988,Teutonia,80,Teen,M,75,Single-ply,80,B
1,80.8,Mikkel Nielsen,1986,Grenå SK,150.5,Teen,M,82.5,Single-ply,150.5,B
2,77.6,Lars Oddershede,1986,Thisted VF,130,Teen,M,82.5,Single-ply,130,B
3,76.5,Martin Bertelsen,1986,Grenå SK,110,Teen,M,82.5,Single-ply,110,B
4,80.3,Jeppe F Balsby,1986,Aarhus AK,110,Teen,M,82.5,Single-ply,110,B
5,77.5,Martin Nors,1986,Frederikshavn HC,95,Teen,M,82.5,Single-ply,95,B
1,,Søren Mølgård,1988,AK Frem,170,Teen,M,90,Single-ply,170,B
2,85.7,Jacob T Nielsen,1986,Gudenådalens SK,145,Teen,M,90,Single-ply,145,B
1,97.8,Simon Lauritsen,1986,Thisted VF,160,Teen,M,100,Single-ply,160,B
2,99.4,Jens Ravn,1986,Odense BBC,145,Teen,M,100,Single-ply,145,B
3,90.7,Thomas Munk,1986,Thisted VF,130,Teen,M,100,Single-ply,130,B
1,112.3,Christian Skovsted,1987,Thisted VF,115,Teen,M,125,Single-ply,115,B
1,134,Jonas Christensen,1986,Gudenådalens SK,140,Teen,M,125+,Single-ply,140,B
