Name,Count
Aaron Cooper,2
Adam Jackson,3
Alex Morrison,2
Alex Palmer,2
Allen Fisher,2
Andrew Kelleher,2
Angel Gonzalez,2
Anthony Young,2
Ashley Butler,2
Benjamin Smith,5
Bill Kelly,2
Bob Evans,2
Brandon Byrd,2
Brandon Turner,3
Brian Sullivan,2
Bryden Wilson,2
Carlos Perez,2
Chen,3
Chris Mason,2
Christian Aquino,2
Collin Grant,2
Cortney Young,2
Dave Brown,3
Dave Richardson,4
David Anderson,3
David Hughes,3
David Martinez,6
David Osborn,2
Duy Tran,2
Eduardo Garcia,2
Elias George,2
Emily Hu,2
Enrique Rodriguez,2
Eric Banks,2
Ethan Fudge,2
Frank Luna,2
Frank Sanders,2
G. Baum,2
Gary Miller,4
Jack Taylor,3
James Ellis,2
James Grant,3
James Henderson,3
Jeremy Willis,2
Joanne Barnes,2
Joel Bell,2
Joey Reid,2
John Jones,4
John Walker,2
Jonathan Rodgers,3
Josh Banks,2
Joshua Yu,2
Julio Sanchez,2
Jussi Mustonen,2
Justin Wilson,4
Kim Moser,2
Kim Tran,3
Kimberly Einstein,2
L. Sample,2
Larry Williams,2
Luke Wilson,2
Martin Nguyen,2
Minh Duc Nguyen,2
Mario Rodriguez,3
Mark Plummer,2
Mason Evans,2
Matt Ward,3
Matthew Jordan,2
Michael Dean,3
Michael Samson,2
Mike Conley,2
Mike Wolfe,2
Morgan Turner,2
Paulo Santos,2
Robert Doll,2
Robert Morrison,2
Ruben Hernandez,2
Ryan King,4
Sam Cox,2
Samuel Smith,2
Sara King,2
Sarah Brenner,2
Sarah Skinner,3
Sarah Vance,2
Seung Lee,2
Steve Johnson,5
Thanh Tam Nguyen,2
Tim Parker,3
Tom Bishop,2
Tom Gee,2
Tom Miller,2
William Manning,2
