WeightClassKg,Division,Sex,Equipment,Place,Name,CyrillicName,BirthYear,BodyweightKg,Bench1Kg,Bench2Kg,Bench3Kg,Best3BenchKg,TotalKg
47,Sub-Juniors,F,Raw,1,Anna Shelekhova,Анна Шелехова,2001,47,25,-27.5,-27.5,25,25
52,Sub-Juniors,F,Raw,1,Tatyana Kashtanova,Татьяна Каштанова,2002,49.9,60,65,-70,65,65
52,Sub-Juniors,F,Raw,2,Elena Lagutina,Елена Лагутина,2001,47.7,35,40,42.5,42.5,42.5
52,Sub-Juniors,F,Raw,3,Alina Soloveva,Алина Соловьева,2002,48.95,30,35,40,40,40
57,Sub-Juniors,F,Raw,1,Anastasiya Kartel,Анастасия Картель,1997,56.9,40,-45,45,45,45
40,Sub-Juniors,M,Raw,1,Valentin Kostin,Валентин Костин,2003,35.2,25,27.5,30,30,30
48,Sub-Juniors,M,Raw,1,Nikita Stanovov,Никита Становов,2000,46.9,45,50,-55,50,50
48,Sub-Juniors,M,Raw,2,Maksim Kashtanov,Максим Каштанов,2001,44,30,-35,-35,30,30
53,Sub-Juniors,M,Raw,1,Nikita Smirnov,Никита Смирнов,1999,52.5,67.5,70,-72.5,70,70
53,Sub-Juniors,M,Raw,2,Artem Safonov,Артем Сафонов,2002,48.15,45,50,-52.5,50,50
59,Sub-Juniors,M,Raw,1,Sergey Morozov,Сергей Морозов,1999,58,110,115,-120,115,115
59,Sub-Juniors,M,Raw,2,Nikita Andronov,Никита Андронов,1999,58.8,90,-95,-95,90,90
66,Sub-Juniors,M,Raw,1,Albert Dzhumagaliev,Альберт Джумагалиев,1998,66,82.5,87.5,92.5,92.5,92.5
66,Sub-Juniors,M,Raw,2,Aleksandr Kolobenin,Александр Колобенин,1999,61.9,85,90,-92.5,90,90
66,Sub-Juniors,M,Raw,3,Dmitriy Kravtsov,Дмитрий Кравцов,1998,64.65,80,-90,-90,80,80
66,Sub-Juniors,M,Raw,4,Mikhail Kudelin,Михаил Куделин,1998,64.65,60,-65,70,70,70
66,Sub-Juniors,M,Raw,5,Vadim Gruzinskiy,Вадим Грузинский,2000,65.05,65,-70,,65,65
66,Sub-Juniors,M,Raw,6,Vladimir Blinov,Владимир Блинов,1998,61.5,55,60,62.5,62.5,62.5
74,Sub-Juniors,M,Raw,1,Petr Pleshivtsev,Петр Плешивцев,1999,71.2,87.5,90,97.5,97.5,97.5
74,Sub-Juniors,M,Raw,2,Sergey Otroshchenko,Сергей Отрощенко,1998,68.15,85,87.5,-92.5,87.5,87.5
74,Sub-Juniors,M,Raw,3,Timofey Repnikov,Тимофей Репников,2000,67.7,77.5,80,-85,80,80
74,Sub-Juniors,M,Raw,4,Yaroslav Veselovskiy,Ярослав Веселовский,2000,68.1,62.5,65,70,70,70
83,Sub-Juniors,M,Raw,1,Maksim Novikov,Максим Новиков,1998,77.05,105,110,-115,110,110
83,Sub-Juniors,M,Raw,2,Aleksandr Georgiev,Александр Георгиев,1998,79.8,100,105,110,110,110
83,Sub-Juniors,M,Raw,3,Egor Slepov,Егор Слепов,1998,81.85,105,-112.5,-112.5,105,105
83,Sub-Juniors,M,Raw,4,Nikita Kiselev,Никита Киселев,1998,80,82.5,90,92.5,92.5,92.5
83,Sub-Juniors,M,Raw,5,Vladislav Sanyuk,Владислав Санюк,1998,76.15,80,87.5,-90,87.5,87.5
83,Sub-Juniors,M,Raw,6,Maksim Voytovich,Максим Войтович,1999,80.55,80,85,87.5,87.5,87.5
83,Sub-Juniors,M,Raw,7,Denis Kolobenin,Денис Колобенин,2000,74.35,60,62.5,-70,62.5,62.5
83,Sub-Juniors,M,Raw,8,Ivan Kornilov,Иван Корнилов,2001,83,55,-60,62.5,62.5,62.5
93,Sub-Juniors,M,Raw,1,Evgeniy Andreev,Евгений Андреев,1999,86,100,110,-115,110,110
93,Sub-Juniors,M,Raw,2,Aleksandr Bakanov,Александр Баканов,1998,89.6,80,87.5,-90,87.5,87.5
93,Sub-Juniors,M,Raw,3,Stepan Chistyakov,Степан Чистяков,1998,92.5,70,75,-80,75,75
93,Sub-Juniors,M,Raw,DQ,Evgeniy Milov,Евгений Милов,1998,86.35,-85,-85,-85,,
105,Sub-Juniors,M,Raw,1,Vladislav Sinitsyn,Владислав Синицын,1998,102.6,-120,120,130,130,130
105,Sub-Juniors,M,Raw,2,Vsevolod Rodionov,Всеволод Родионов,1998,100.5,95,100,-105.5,100,100
120,Sub-Juniors,M,Raw,1,Mikhail Konorezov,Михаил Конорезов,1999,108.2,75,80,85,85,85
48,Sub-Juniors,M,Raw,1,Vladimir Kortunov,Владимир Кортунов,1996,45.15,-40,40,50,50,50
66,Sub-Juniors,M,Raw,1,Ilya Lokhin,Илья Лохин,1996,61.3,95,100,105,105,105
66,Sub-Juniors,M,Raw,2,Sergey Vinogradov,Сергей Виноградов,1996,64.05,85,90,92.5,92.5,92.5
66,Sub-Juniors,M,Raw,3,Pavel Nikolaev,Павел Николаев,1997,65.25,87.5,-92.5,-92.5,87.5,87.5
83,Sub-Juniors,M,Raw,1,Anton Reshetov,Антон Решетов,1996,79.85,120,127.5,135,135,135
83,Sub-Juniors,M,Raw,2,Sergey Velichkin,Сергей Величкин,1997,79.85,120,127.5,-137.5,127.5,127.5
83,Sub-Juniors,M,Raw,3,Mikhail Voevoda,Михаил Воевода,1996,80.2,105,-110,-112.5,105,105
93,Sub-Juniors,M,Raw,1,Mikhail Grishankov,Михаил Гришанков,1996,85,110,115,120,120,120
93,Sub-Juniors,M,Raw,2,Denis Yakovlev,Денис Яковлев,1996,86,100,112.5,-117.5,112.5,112.5
105,Sub-Juniors,M,Raw,1,Dmitriy Glushkov,Дмитрий Глушков,1997,103.7,-100,105,112.5,112.5,112.5
105,Sub-Juniors,M,Raw,2,Evgeniy Slesarchik,Евгений Слесарчик,1997,93.15,90,95,105,105,105
105,Sub-Juniors,M,Raw,3,Mikhail Solovev,Михаил Соловьев,1996,101.75,80,92.5,-97.5,92.5,92.5
120,Sub-Juniors,M,Raw,1,Ivan Ryabenkov,Иван Рябенков,1996,116.4,140,150,-157.5,150,150
59,Juniors,M,Raw,1,Vasiliy Shapkin,Василий Шапкин,1991,55.4,95,100,105,105,105
59,Juniors,M,Raw,2,Renat Bayramov,Ренат Байрамов,1995,59,90,100,-105,100,100
59,Juniors,M,Raw,3,Daniil Chumakov,Даниил Чумаков,1995,58.85,75,80,-82.5,80,80
66,Juniors,M,Raw,1,Mikhail Petrov,Михаил Петров,1993,65.3,105,110,115,115,115
66,Juniors,M,Raw,2,Aleksandr Panteleev,Александр Пантелеев,1991,62.4,100,107.5,-115,107.5,107.5
74,Juniors,M,Raw,1,Islam Ramazanov,Ислам Рамазанов,1994,72.65,-117.5,117.5,125,125,125
74,Juniors,M,Raw,2,Vitaliy Tsimintiya,Виталий Циминтия,1994,73.75,120,125,-130,125,125
74,Juniors,M,Raw,3,Sergey Khon,Сергей Хон,1992,68.75,110,115,-120,115,115
74,Juniors,M,Raw,4,Vladislav Zhukovskiy,Владислав Жуковский,1994,72.35,95,100,107.5,107.5,107.5
83,Juniors,M,Raw,1,Dmitriy Uvarenkov,Дмитрий Уваренков,1995,78.35,115,120,-125,120,120
83,Juniors,M,Raw,2,Aleksandr Kruchinin,Александр Кручинин,1991,81.7,-115,115,-120,115,115
83,Juniors,M,Raw,DQ,Timofey Savchenko,Тимофей Савченко,1993,78.95,-125,-125,-125,,
83,Juniors,M,Raw,DQ,Vladislav Kotegov,Владислав Котегов,1995,79.05,-120,-130,-130,,
93,Juniors,M,Raw,1,David Matevosyan,Давид Матевосян,1991,92.4,180,-186,186,186,186
93,Juniors,M,Raw,2,Ruslan Shevchenko,Руслан Шевченко,1995,92.15,175,-185.5,-186,175,175
93,Juniors,M,Raw,3,Vasiliy Novikov,Василий Новиков,1992,89.15,-130,130,140,140,140
93,Juniors,M,Raw,4,Vasiliy Bogdanov,Василий Богданов,1995,86.95,120,-125,127.5,127.5,127.5
105,Juniors,M,Raw,1,Aleksandr Pedchenko,Александр Педченко,1993,103.95,200,-207.5,-207.5,200,200
105,Juniors,M,Raw,2,Vladimir Dergunov,Владимир Дергунов,1991,100.35,180,185,,185,185
105,Juniors,M,Raw,3,Ilya Golomidov,Илья Голомидов,1992,93.5,150,-155,-155,150,150
120,Juniors,M,Raw,1,Nikita Danilov,Никита Данилов,1992,106.75,200,210,217.5,217.5,217.5
120+,Juniors,M,Raw,1,Vladislav Chuprin,Владислав Чуприн,1993,125.8,130,-140,140,140,140
93,Masters 4,M,Raw,1,Viktor Tarasov,Виктор Тарасов,1944,89.8,95,100,105,105,105
66,Masters 3,M,Raw,1,Armais Arzumanyan,Армаис Арзуманян,1954,65.55,-65,-70,70,70,70
74,Masters 3,M,Raw,1,Nikolay Baykov,Николай Байков,1953,73.25,90,95,-100,95,95
83,Masters 3,M,Raw,1,Vladimir Demyokhin,Владимир Демёхин,1948,79.85,107.5,112.5,115,115,115
83,Masters 3,M,Raw,DQ,Vladimir Gots,Владимир Гоц,1946,81.2,-70,-70,-70,,
93,Masters 3,M,Raw,1,Valeriy Shaat,Валерий Шаат,1950,87.75,130,137.5,-140,137.5,137.5
105,Masters 3,M,Raw,1,Vladimir Shevnin,Владимир Шевнин,1953,101.55,125,130,135,135,135
105,Masters 3,M,Raw,2,Vladislav Pavlyukov,Владислав Павлюков,1946,97.6,-100,100,-107.5,100,100
120,Masters 3,M,Raw,1,Aleksandr Starov,Александр Старов,1952,116.1,130,140,147.5,147.5,147.5
120,Masters 3,M,Raw,2,Yuriy Zakharov,Юрий Захаров,1950,106.5,140,145,,145,145
120,Masters 3,M,Raw,3,Anatoliy Stepanov,Анатолий Степанов,1951,112,120,127.5,-132.5,127.5,127.5
83,Masters 2,M,Raw,1,Andrey Kogan,Андрей Коган,1962,81.85,130,137.5,142.5,142.5,142.5
83,Masters 2,M,Raw,2,Igor Savelov,Игорь Савелов,1962,78.05,117.5,122.5,127.5,127.5,127.5
83,Masters 2,M,Raw,3,Oleg Efimov,Олег Ефимов,1959,82.1,-92.5,92.5,97.5,97.5,97.5
93,Masters 2,M,Raw,1,Aleksandr Belousov,Александр Белоусов,1960,91.3,147.5,152.5,157.5,157.5,157.5
93,Masters 2,M,Raw,2,Aleksandr Naumov,Александр Наумов,1963,91.3,147.5,152.5,157.5,157.5,157.5
93,Masters 2,M,Raw,3,Aleksandr Sanin,Александр Санин,1958,88.9,140,-150,-150,140,140
93,Masters 2,M,Raw,4,Viktor Chantsev,Виктор Чанцев,1957,90.3,120,125,130,130,130
105,Masters 2,M,Raw,1,Yuliy Grakhov,Юлий Грахов,1963,99.9,135,-140,-140,135,135
120,Masters 2,M,Raw,1,Andrey Peshkov,Андрей Пешков,1963,110.5,165,172.5,180,180,180
120,Masters 2,M,Raw,2,Ivan Danilin,Иван Данилин,1963,116.45,160,170,-175,170,170
120,Masters 2,M,Raw,3,Aleksandr Lavrukhin,Александр Лаврухин,1961,114.8,150,155,-160,155,155
120+,Masters 2,M,Raw,1,Sergey Nikeshin,Сергей Никешин,1957,122.4,160,167.5,-172.5,167.5,167.5
120+,Masters 2,M,Raw,2,Pavel Fedorov,Павел Федоров,1960,136.95,112.5,117.5,122.5,122.5,122.5
59,Masters 1,M,Raw,1,Pavel Burdanov,Павел Бурданов,1969,57.3,95,-97.5,,95,95
74,Masters 1,M,Raw,1,Andrey Belov,Андрей Белов,1969,69.1,115,-120,120,120,120
74,Masters 1,M,Raw,2,Sergey Toming,Сергей Томинг,1968,70.05,100,105,110,110,110
74,Masters 1,M,Raw,3,Ikhtiar Aliev,Ихтиар Алиев,1965,72.4,-85,87.5,90,90,90
83,Masters 1,M,Raw,1,Valentin Lebedev,Валентин Лебедев,1965,78.95,140,145,147.5,147.5,147.5
83,Masters 1,M,Raw,2,Denis Palkin,Денис Палкин,1969,81.95,142.5,-147.5,-150,142.5,142.5
83,Masters 1,M,Raw,3,Gennadiy Grigorev,Геннадий Григорьев,1967,80.9,110,115,120,120,120
93,Masters 1,M,Raw,1,Sergey Rogozin,Сергей Рогозин,1971,88.35,200,210,215,215,215
93,Masters 1,M,Raw,2,Valeriy Nikishin,Валерий Никишин,1965,92.4,180,-190,,180,180
93,Masters 1,M,Raw,3,Vyacheslav Elizarov,Вячеслав Елизаров,1973,92,145,155,165,165,165
93,Masters 1,M,Raw,4,Sergey Martynov,Сергей Мартынов,1965,92.75,147.5,152.5,-157.5,152.5,152.5
105,Masters 1,M,Raw,1,Sergey Barkovskiy,Сергей Барковский,1971,101.25,215,-220,220,220,220
105,Masters 1,M,Raw,2,Aleksandr Garnov,Александр Гарнов,1971,96.95,175,-192.5,192.5,192.5,192.5
105,Masters 1,M,Raw,3,Mikhail Yakovlev,Михаил Яковлев,1971,101.3,150,157.5,-160,157.5,157.5
105,Masters 1,M,Raw,4,Aleksandr Kiskin,Александр Кискин,1971,94.65,130,-140,-140,130,130
120,Masters 1,M,Raw,1,Dmitriy Penkin,Дмитрий Пенкин,1970,116.4,190,202.5,-210,202.5,202.5
120,Masters 1,M,Raw,2,Sergey Lukashov,Сергей Лукашов,1971,108.4,192.5,197.5,-200,197.5,197.5
120,Masters 1,M,Raw,3,Boris Savitskiy,Борис Савицкий,1974,109.35,-170,-175,175,175,175
120,Masters 1,M,Raw,4,Sergey Egorov,Сергей Егоров,1969,117.55,175,-180,-180,175,175
120+,Masters 1,M,Raw,1,Andrey Chastev,Андрей Частев,1974,128.4,217.5,225,-230,225,225
120+,Masters 1,M,Raw,2,Aleksey Sablukov,Алексей Саблуков,1966,120.75,155,-162.5,-162.5,155,155
47,Juniors,F,Raw,1,Mariya Koldaeva,Мария Колдаева,1991,42.75,50,52.5,55,55,55
47,Juniors,F,Raw,2,Anna Zakharova,Анна Захарова,1991,46.25,-25,30,35,35,35
57,Juniors,F,Raw,1,Ekaterina Okun,Екатерина Окунь,1994,55.8,65,70,-72.5,70,70
57,Juniors,F,Raw,2,Anastasiya Shevchenko,Анастасия Шевченко,1995,55.5,45,-47.5,50,50,50
57,Juniors,F,Raw,3,Kseniya Opoka,Ксения Опока,1995,55.45,35,-40,-40,35,35
63,Juniors,F,Raw,1,Veronika Novoselova,Вероника Новоселова,1991,61.85,57.5,60,65,65,65
63,Juniors,F,Raw,2,Yuliya Volkova,Юлия Волкова,1991,62.2,55,60,-62.5,60,60
63,Juniors,F,Raw,3,Viktoriya Petushkova,Виктория Петушкова,1994,59,-45,47.5,50,50,50
63,Juniors,F,Raw,4,Elena Yanchurkina,Елена Янчуркина,1992,62.45,40,-47.5,-47.5,40,40
63,Juniors,F,Raw,5,Viktoriya Pavlenko,Виктория Павленко,1993,60.9,35,37.5,-42.5,37.5,37.5
72,Juniors,F,Raw,1,Alisa Kuznetsova,Алиса Кузнецова,1995,63.05,-65,65,70,70,70
57,Masters 2,F,Raw,1,Irina Orlova,Ирина Орлова,1964,56.4,45,50,-52.5,50,50
63,Masters 2,F,Raw,1,Irina Bryantseva,Ирина Брянцева,1960,62.45,42.5,-52.5,-55,42.5,42.5
63,Masters 1,F,Raw,1,Natalya Litvintseva,Наталья Литвинцева,1970,62.3,70,75,-77.5,75,75
72,Masters 1,F,Raw,1,Marina Aleksandrova,Марина Александрова,1968,65.2,82.5,85,90,90,90
72,Masters 1,F,Raw,2,Irina Ovsyannikova,Ирина Овсянникова,1971,70.85,50,57.5,62.5,62.5,62.5
84,Masters 1,F,Raw,1,Regina Kirillova,Регина Кириллова,1969,79.65,90,95,102.5,102.5,102.5
47,Open,F,Raw,1,Karina Simonyants,Карина Симонянц,1977,46.9,70,72.5,-75,72.5,72.5
47,Open,F,Raw,2,Olga Pavlova,Ольга Павлова,1987,43.45,50,52.5,55,55,55
52,Open,F,Raw,1,Yanina Udarova,Янина Ударова,1988,51.45,55,60,-65,60,60
52,Open,F,Raw,2,Viktoriya Anashchenkova,Виктория Анащенкова,1983,51.95,55,60,-62.5,60,60
52,Open,F,Raw,3,Kseniya Matveeva,Ксения Матвеева,1981,51.1,40,45,-50,45,45
52,Open,F,Raw,4,Viktoriya Burmistrova,Виктория Бурмистрова,1990,49.8,35,-40,-40,35,35
52,Open,F,Raw,5,Yana Sukhova,Яна Сухова,1990,49.7,25,-30,-30,25,25
57,Open,F,Raw,1,Antonina Abusueva,Антонина Абусуева,1983,55.75,75,-80,80,80,80
57,Open,F,Raw,2,Inna Snisar,Инна Снисарь,1986,55.8,60,-62.5,-62.5,60,60
57,Open,F,Raw,3,Olga Mamedova,Ольга Мамедова,1982,56.1,57.5,60,-62.5,60,60
57,Open,F,Raw,4,Olesya Egorova,Олеся Егорова,1990,55.65,55,57.5,-60,57.5,57.5
63,Open,F,Raw,1,Tatyana Efimova,Татьяна Ефимова,1977,60.2,77.5,82.5,85,85,85
63,Open,F,Raw,2,Yuliya Gubenko,Юлия Губенко,1977,57.75,60,-65,65,65,65
63,Open,F,Raw,3,Ekaterina Khruleva,Екатерина Хрулева,1981,62.55,60,-65,-65,60,60
63,Open,F,Raw,4,Alena Volkova,Алена Волкова,1988,59.85,42.5,45,-50,45,45
63,Open,F,Raw,5,Svetlana Vasileva,Светлана Васильева,1975,61.45,40,42.5,-45,42.5,42.5
72,Open,F,Raw,1,Anna Gudkova,Анна Гудкова,1978,65.5,95,100,-105,100,100
72,Open,F,Raw,2,Antonina Tolasova,Антонина Толасова,1970,70.85,70,75,-80,75,75
72,Open,F,Raw,3,Alena Kotenko,Алена Котенко,1989,70.4,65,67.5,70,70,70
72,Open,F,Raw,4,Mariya Borisevich,Мария Борисевич,1995,70.05,35,45,-55,45,45
84,Open,F,Raw,1,Kseniya Chernitsyna,Ксения Черницына,1986,76.85,105,110,-115,110,110
84,Open,F,Raw,2,Svetlana Belyaeva,Светлана Беляева,1988,82.15,70,75,80,80,80
84,Open,F,Raw,3,Aleksandra Pavlovskaya,Александра Павловская,1986,80.4,65,70,-72.5,70,70
84,Open,F,Raw,4,Yuliya Ivanova,Юлия Иванова,1992,74.3,55,60,65,65,65
84,Open,F,Raw,5,Nataliya Tyurina,Наталия Тюрина,1979,78.1,52.5,-57.5,57.5,57.5,57.5
84+,Open,F,Raw,1,Anna Gavrilova,Анна Гаврилова,1988,109.65,90,100,,100,100
59,Open,M,Raw,1,Dmitriy Mishchenko,Дмитрий Мищенко,1986,56.55,80,85,90,90,90
66,Open,M,Raw,1,Maksim Baranov,Максим Баранов,1989,64.95,130,138,140,140,140
66,Open,M,Raw,2,Viktor Berezin,Виктор Березин,1995,64.6,105,-110,110,110,110
66,Open,M,Raw,3,Dmitriy Rybinkov,Дмитрий Рыбинков,1990,63,100,-107.5,107.5,107.5,107.5
66,Open,M,Raw,4,Roman Efanov,Роман Ефанов,1990,61.5,80,90,100,100,100
66,Open,M,Raw,5,Aleksandr Dolganov,Александр Долганов,1985,65.75,95,-100,100,100,100
66,Open,M,Raw,6,Pavel Semenov,Павел Семенов,1989,62.9,85,-90,-90,85,85
66,Open,M,Raw,DQ,Sergey Subbotin,Сергей Субботин,1984,65.85,-90,-90,-90,,
74,Open,M,Raw,1,Vladislav Bolshakov,Владислав Большаков,1990,72.45,165,170,175,175,175
74,Open,M,Raw,2,Sergey Temnov,Сергей Темнов,1988,72.85,150,157.5,-162.5,157.5,157.5
74,Open,M,Raw,3,Pavel Prudnikov,Павел Прудников,1988,73.8,145,155,157.5,157.5,157.5
74,Open,M,Raw,4,Stanislav Trotskiy,Станислав Троцкий,1986,73.05,145,155,-160,155,155
74,Open,M,Raw,5,Andrey Ivanov,Андрей Иванов,1971,72.8,140,-150,150,150,150
74,Open,M,Raw,6,Aleksey Fisenko,Алексей Фисенко,1989,72.05,140,147.5,-150,147.5,147.5
74,Open,M,Raw,7,Danil Alekseev,Данил Алексеев,1988,73.55,135,142.5,147.5,147.5,147.5
74,Open,M,Raw,8,Ivan Zhivodernikov,Иван Живодерников,1989,71.8,135,140,145,145,145
74,Open,M,Raw,9,Sergey Pilyugov,Сергей Пилюгов,1990,72.65,127.5,132.5,140,140,140
74,Open,M,Raw,10,Andrey Surov,Андрей Суров,1989,73.9,130,137.5,-145,137.5,137.5
74,Open,M,Raw,11,Sergey Shemyakin,Сергей Шемякин,1977,74,-130,130,-135,130,130
74,Open,M,Raw,12,Evgeniy Gerya,Евгений Геря,1983,74,115,125,-132.5,125,125
74,Open,M,Raw,13,Evgeniy Perelygin,Евгений Перелыгин,1987,72.3,95,102.5,-107.5,102.5,102.5
83,Open,M,Raw,1,Aleksey Rusakov,Алексей Русаков,1977,81.55,165,175,182.5,182.5,182.5
83,Open,M,Raw,2,Yuriy Kadyrov,Юрий Кадыров,1974,80.95,167.5,175,180,180,180
83,Open,M,Raw,3,Mikhail Cherimov,Михаил Черимов,1978,79.6,165,172.5,177.5,177.5,177.5
83,Open,M,Raw,4,Denis Fedorchuk,Денис Федорчук,1989,81.8,-160,165,175,175,175
83,Open,M,Raw,5,Vladimir Rostun,Владимир Ростун,1981,82.7,160,-170,170,170,170
83,Open,M,Raw,6,Aleksandr Chashchin,Александр Чащин,1987,82.35,140,150,-160,150,150
83,Open,M,Raw,7,Pavel Sobolevskiy,Павел Соболевский,1984,74.15,140,145,147.5,147.5,147.5
83,Open,M,Raw,8,Dmitriy Mamaev,Дмитрий Мамаев,1985,82.5,140,-147.5,-147.5,140,140
83,Open,M,Raw,9,Evgeniy Murashev,Евгений Мурашев,1990,82.55,132.5,140,-145,140,140
83,Open,M,Raw,10,Ivan Garaev,Иван Гараев,1988,80.65,132.5,-140,-140,132.5,132.5
83,Open,M,Raw,11,Evgeniy Usov,Евгений Усов,1987,82.4,-125,125,-130,125,125
93,Open,M,Raw,1,Aleksey Drozdov,Алексей Дроздов,1988,90.05,210,215,-218.5,215,215
93,Open,M,Raw,2,David Matevosyan,Давид Матевосян,1991,91.65,-182.5,187.5,190,190,190
93,Open,M,Raw,3,Maksim Ivanov,Максим Иванов,1979,93,170,180,190,190,190
93,Open,M,Raw,4,Vladimir Belyaev,Владимир Беляев,1981,89.65,162.5,172.5,-175,172.5,172.5
93,Open,M,Raw,5,Nikolay Anisimov,Николай Анисимов,1981,91.85,162.5,172.5,-177.5,172.5,172.5
93,Open,M,Raw,6,Pavel Kobelev,Павел Кобелев,1989,89.95,150,160,-170,160,160
93,Open,M,Raw,7,Sergey Filatov,Сергей Филатов,1987,91.6,150,-157.5,157.5,157.5,157.5
93,Open,M,Raw,8,Denis Starshov,Денис Старшов,1990,92.2,140,145,-150,145,145
93,Open,M,Raw,9,Emil Aliev,Эмиль Алиев,1988,93,140,145,-150,145,145
105,Open,M,Raw,1,Aleksandr Popov,Александр Попов,1984,98.1,210,220,227.5,227.5,227.5
105,Open,M,Raw,2,Oleg Timofeev,Олег Тимофеев,1976,96.75,210,220,-227.5,220,220
105,Open,M,Raw,3,Yury Belkin,Юрий Белкин,1990,100.35,210,220,-222.5,220,220
105,Open,M,Raw,4,Aleksandr Vulikh,Александр Вулих,1986,102.45,200,205,210,210,210
105,Open,M,Raw,5,Ivan Kostyukov,Иван Костюков,1988,104,190,200,205,205,205
105,Open,M,Raw,6,Anton Tsvetkov,Антон Цветков,1982,96.85,195,202.5,-207.5,202.5,202.5
105,Open,M,Raw,7,Aleksey Vasilev,Алексей Васильев,1979,98.55,175,185,-190,185,185
105,Open,M,Raw,8,Ivan Fadin,Иван Фадин,1983,101.45,170,-180,185,185,185
105,Open,M,Raw,9,Bogdan Kishkin,Богдан Кишкин,1975,93.65,170,180,-185,180,180
105,Open,M,Raw,10,Pavel Vysochin,Павел Высочин,1986,103.75,162.5,172.5,180,180,180
105,Open,M,Raw,11,Aleksandr Dorzhiev,Александр Доржиев,1984,94.45,165,172.5,-177.5,172.5,172.5
105,Open,M,Raw,12,Dmitriy Balabaev,Дмитрий Балабаев,1984,94.85,150,157.5,-160,157.5,157.5
105,Open,M,Raw,13,Levon Lambaryan,Левон Ламбарян,1985,100.85,-150,155,-160,155,155
105,Open,M,Raw,14,Pavel Baranov,Павел Баранов,1990,104.5,145,155,-160,155,155
105,Open,M,Raw,15,Aleksey Tarasov,Алексей Тарасов,1981,99.25,150,-160,-160,150,150
105,Open,M,Raw,DQ,Nikolay Yarlikov,Николай Ярликов,1984,102.9,-175,-190,-190,,
120,Open,M,Raw,1,Pavel Berlin,Павел Берлин,1986,113.9,232.5,-240,-240,232.5,232.5
120,Open,M,Raw,2,Igor Muravev,Игорь Муравьев,1985,109.7,225,230,-235,230,230
120,Open,M,Raw,3,Nikita Reshetov,Никита Решетов,1978,112.6,225,230,-235,230,230
120,Open,M,Raw,4,Nikita Danilov,Никита Данилов,1992,107.5,210,-220,220,220,220
120,Open,M,Raw,5,Aleksandr Brodovyy,Александр Бродовый,1980,117.15,205,220,-230,220,220
120,Open,M,Raw,6,Igor Bugaev,Игорь Бугаев,1973,112.6,185,200,-205,200,200
120,Open,M,Raw,7,Egor Novitskiy,Егор Новицкий,1984,112,190,-195,-200,190,190
120,Open,M,Raw,8,Andrey Yurtaev,Андрей Юртаев,1977,116.65,190,-200,-205,190,190
120,Open,M,Raw,9,Vitaliy Lomonosov,Виталий Ломоносов,1987,114.6,175,187.5,-197.5,187.5,187.5
120,Open,M,Raw,10,Igor Smirnov,Игорь Смирнов,,106.5,180,185,-192.5,185,185
120,Open,M,Raw,11,Vadim Shchurov,Вадим Щуров,1990,106.7,185,-190,-190,185,185
120,Open,M,Raw,12,Mikhail Gudkov,Михаил Гудков,1975,110,175,185,-190,185,185
120,Open,M,Raw,13,Andrey Fedotov,Андрей Федотов,1976,115.85,160,170,-180,170,170
120,Open,M,Raw,14,Dmitriy Yunak,Дмитрий Юнак,1983,112.7,155,162.5,165,165,165
120,Open,M,Raw,15,Aleksey Zateev,Алексей Затеев,1990,118.5,130,140,-145,140,140
120+,Open,M,Raw,1,Sergey Getman,Сергей Гетман,1974,128.05,235,240,250.5,250.5,250.5
120+,Open,M,Raw,2,Aleksandr Abramov,Александр Абрамов,1974,135.1,230,-240,-240,230,230
120+,Open,M,Raw,3,Maksim Rekrutyak,Максим Рекрутяк,1983,128.85,202.5,210,220,220,220
120+,Open,M,Raw,4,Aleksey Klevakin,Алексей Клевакин,1990,152.2,200,-210,-210,200,200
